…
Ultimately, we end up with 3 tables like the following, which we would like the end user to filter interactively by subject ID.

data_fup

## # A tibble: 500 x 4
##        id ind_event dt_first_contact dt_last_contact
##     <int>     <int> <date>           <date>         
##  1 842910         1 2005-12-04       2006-12-01     
##  2 734307         0 2013-08-17       2019-12-31     
##  3 831334         0 2019-08-01       2019-12-31     
##  4 579848         0 2018-09-01       2019-02-13     
##  5 438865         0 2015-04-18       2017-12-13     
##  6 469101         1 2011-04-29       2014-09-17     
##  7 989456         0 2004-10-11       2009-05-22     
##  8 173478         0 2008-07-07       2010-11-21     
##  9 591277         0 2005-05-16       2005-09-18     
## 10 485156         1 2002-01-13       2006-04-02     
## # … with 490 more rows

data_demo

## # A tibble: 500 x 5
##        id   age sex   race  ind_her2
##     <int> <int> <chr> <chr>    <int>
##  1 842910    62 F     White        1
##  2 734307    30 F     White        1
##  3 831334    99 F     White        1
##  4 579848    48 F     White        1
##  5 438865    36 F     White        1
##  6 469101    55 F     Black        1
##  7 989456    53 F     White        1
##  8 173478    49 F     White        1
##  9 591277    67 F     White        0
## 10 485156    65 F     White        1
## # … with 490 more rows

data_trt

## # A tibble: 1,487 x 4
##        id trt                     dt_trt_start dt_trt_end
##     <int> <chr>                   <date>       <date>    
##  1 842910 HERCEPTIN/PACLITAXEL    2005-12-13   2006-06-23
##  2 842910 PACLITAXEL/CAPECITABINE 2006-06-24   2006-07-09
##  3 842910 PACLITAXEL/CAPECITABINE 2006-07-10   2006-10-23
##  4 842910 PERTUZUMAB              2006-10-24   2006-11-27
##  5 734307 PACLITAXEL              2013-10-02   2015-11-08
##  6 831334 PERTUZUMAB              2019-12-08   2019-12-15
##  7 579848 PERTUZUMAB              2018-11-24   2018-12-28
##  8 438865 PACLITAXEL/CAPECITABINE 2015-08-01   2016-03-17
##  9 438865 PERTUZUMAB              2016-03-18   2016-04-15
## 10 438865 PACLITAXEL              2016-04-16   2016-08-12
## # … with 1,477 more rows
…
